[
    { "id": 1, "value": "Incomplete" },
    { "id": 2, "value": "Complete" },
    { "id": 99, "value": "Unbound" },
    { "id": 100, "value": "Bound with Exception" },    
    { "id": 101, "value": "Bound" }
]